rssi,-78
rssi,-79
rssi,-80
rssi,-78
rssi,-93
rssi,-83
rssi,-81
rssi,-81
rssi,-79
rssi,-81
rssi,-87
rssi,-81
rssi,-78
rssi,-82
rssi,-80
rssi,-84
rssi,-84
rssi,-80
rssi,-79
rssi,-81
rssi,-89
rssi,-81
rssi,-80
rssi,-89
rssi,-92
rssi,-90
rssi,-80
rssi,-79
rssi,-79
rssi,-79
rssi,-79
rssi,-80
rssi,-79
rssi,-80
rssi,-81
rssi,-81
rssi,-81
rssi,-79
rssi,-92
rssi,-79
rssi,-87
rssi,-80
rssi,-79
rssi,-79
rssi,-80
rssi,-88
rssi,-80
rssi,-78
