rssi,-91
rssi,-91
rssi,-95
rssi,-92
rssi,-95
rssi,-92
rssi,-94
rssi,-89
rssi,-92
rssi,-91
rssi,-90
rssi,-89
rssi,-86
rssi,-86
rssi,-91
rssi,-86
rssi,-89
rssi,-90
rssi,-90
rssi,-89
rssi,-88
rssi,-89
rssi,-90
rssi,-92
rssi,-89
rssi,-95
