rssi,-90
rssi,-77
rssi,-83
rssi,-81
rssi,-82
rssi,-82
rssi,-79
rssi,-80
rssi,-79
rssi,-80
rssi,-84
rssi,-82
rssi,-80
rssi,-80
rssi,-79
rssi,-80
rssi,-77
rssi,-79
rssi,-80
rssi,-80
rssi,-83
rssi,-82
rssi,-81
rssi,-82
rssi,-81
rssi,-79
rssi,-78
rssi,-77
rssi,-77
rssi,-79
rssi,-79
rssi,-77
rssi,-84
rssi,-76
rssi,-76
rssi,-82
rssi,-75
rssi,-82
rssi,-76
rssi,-84
rssi,-76
rssi,-79
rssi,-84
